lab5
…
## See spec(...) for full column specifications.

## `summarise()` regrouping output by 'Province_State' (override with `.groups` argument)

head(US_Confirmed_TimeSeries)

## $data
## # A tibble: 498 x 4
## # Groups:   Province_State [2]
##    Province_State Date    Confirmed .group
##    <chr>          <chr>       <dbl>  <int>
##  1 Alabama        1/22/20         0      1
##  2 Alabama        1/23/20         0      1
##  3 Alabama        1/24/20         0      1
##  4 Alabama        1/25/20         0      1
##  5 Alabama        1/26/20         0      1
##  6 Alabama        1/27/20         0      1
##  7 Alabama        1/28/20         0      1
##  8 Alabama        1/29/20         0      1
##  9 Alabama        1/30/20         0      1
## 10 Alabama        1/31/20         0      1
## #  with 488 more rows
## 
## $layers
## $layers[[1]]
## geom_point: na.rm = FALSE
## stat_identity: na.rm = FALSE
## position_identity 
## 
## $layers[[2]]
…
